{
    "components": [
      {
        "label": "Columns",
        "columns": [
          {
            "components": [
              {
                "label": "Requests.ActionStatusTitle",
                "widget": "choicesjs",
                "dataSrc": "url",
                "data": {
                  "url": "ActionStatusTypes",
                  "headers": []
                },
                "selectThreshold": 0.3,
                "validate": {
                  "unique": false,
                  "multiple": false
                },
                "template": "{{ item.alternateName }}",
                "key": "actionStatus",
                "valueProperty": "alternateName",
                "selectValues": "value",
                "type": "select",
                "input": true,
                "hideOnChildrenHidden": false,
                "disableLimit": false,
                "lazyLoad": false
              }
            ],
            "width": 4,
            "offset": 0,
            "push": 0,
            "pull": 0
          },
          {
            "components": [
              {
                "label": "Requests.AdditionalType",
                "widget": "choicesjs",
                "dataSrc": "url",
                "data": {
                  "url": "StudentRequestConfigurations/?$filter=additionalType ne null&$select=additionalType&$groupby=additionalType",
                  "headers": []
                },
                "selectThreshold": 0.3,
                "validate": {
                  "unique": false,
                  "multiple": false
                },
                "template": "{{ item.additionalType }}",
                "key": "additionalType",
                "valueProperty": "additionalType",
                "selectValues": "value",
                "type": "select",
                "input": true,
                "hideOnChildrenHidden": false,
                "disableLimit": false,
                "lazyLoad": false
              }
            ],
            "width": 4,
            "offset": 0,
            "push": 0,
            "pull": 0
          },
          {
            "components": [
              {
                "label": "Requests.Preview.Description",
                "spellcheck": true,
                "key": "name",
                "type": "textfield",
                "input": true,
                "hideOnChildrenHidden": false
              }
            ],
            "width": 4,
            "offset": 0,
            "push": 0,
            "pull": 0
          }
        ],
        "tableView": false,
        "key": "columns1",
        "type": "columns",
        "input": false,
        "path": "columns1"
      }
    ]
  }
  