{
  "components": [
    {
      "label": "Columns",
      "columns": [
        {
          "components": [
            {
              "label": "Departments.ListTable.Name",
              "spellcheck": true,
              "tableView": true,
              "validate": {
                "unique": false,
                "multiple": false
              },
              "key": "name",
              "type": "textfield",
              "input": true,
              "hideOnChildrenHidden": false
            }
          ],
          "width": 6,
          "offset": 0,
          "push": 0,
          "pull": 0
        },
        {
          "components": [
            {
              "label": "Departments.ListTable.facultyName",
              "spellcheck": true,
              "tableView": true,
              "validate": {
                "unique": false,
                "multiple": false
              },
              "key": "facultyName",
              "type": "textfield",
              "input": true,
              "hideOnChildrenHidden": false
            }
          ],
          "width": 6,
          "offset": 0,
          "push": 0,
          "pull": 0
        }
      ],
      "tableView": false,
      "key": "department",
      "type": "columns",
      "input": false,
      "path": "columns"
    },
    {
      "label": "Columns",
      "columns": [
        {
          "components": [
            {
              "label": "Departments.ListTable.ContactDetails",
              "spellcheck": true,
              "tableView": true,
              "validate": {
                "unique": false,
                "multiple": false
              },
              "key": "contact",
              "type": "textfield",
              "input": true,
              "hideOnChildrenHidden": false
            }
          ],
          "width": 3,
          "offset": 0,
          "push": 0,
          "pull": 0
        },
        {
          "components": [
            {
              "label": "Departments.ListTable.ID",
              "spellcheck": true,
              "tableView": true,
              "validate": {
                "unique": false,
                "multiple": false
              },
              "key": "abbreviation",
              "type": "textfield",
              "input": true,
              "hideOnChildrenHidden": false
            }
          ],
          "width": 3,
          "offset": 0,
          "push": 0,
          "pull": 0
        }
      ],
      "tableView": false,
      "key": "columns1",
      "type": "columns",
      "input": false,
      "path": "columns1"
    }
  ]
}
