{
  "components": [
    {
      "label": "Columns",
      "columns": [
        {
          "components": [
            {
              "label": "Students.studentIdentifier",
              "spellcheck": true,
              "tableView": true,
              "validate": {
                "unique": false,
                "multiple": false
              },
              "key": "studentIdentifier",
              "type": "textfield",
              "input": true,
              "hideOnChildrenHidden": false
            }
          ],
          "width": 3,
          "offset": 0,
          "push": 0,
          "pull": 0
        },
        {
          "components": [
            {
              "label": "Students.fullName",
              "spellcheck": true,
              "tableView": true,
              "validate": {
                "unique": false,
                "multiple": false
              },
              "key": "studentName",
              "type": "textfield",
              "input": true,
              "hideOnChildrenHidden": false
            }
          ],
          "width": 3,
          "offset": 0,
          "push": 0,
          "pull": 0
        },
        {
          "components": [
            {
              "label": "Requests.StudentStatus",
              "widget": "choicesjs",
              "dataSrc": "url",
              "data": {
                "url": "StudentStatuses?$orderby=name",
                "headers": []
              },
              "selectThreshold": 0.3,
              "validate": {
                "unique": false,
                "multiple": false
              },
              "template": "{{ item.name }}",
              "key": "studentStatus",
              "valueProperty": "alternateName",
              "selectValues": "value",
              "type": "select",
              "input": true,
              "hideOnChildrenHidden": false,
              "disableLimit": false,
              "lazyLoad": false
            }
          ],
          "width": 3,
          "offset": 0,
          "push": 0,
          "pull": 0
        },
        {
          "components": [
            {
              "label": "Requests.AgentName",
              "spellcheck": true,
              "tableView": true,
              "validate": {
                "unique": false,
                "multiple": false
              },
              "key": "agentName",
              "type": "textfield",
              "input": true,
              "hideOnChildrenHidden": false
            }
          ],
          "width": 3,
          "offset": 0,
          "push": 0,
          "pull": 0
        },
        {
          "components": [
            {
              "label": "Requests.ActionStatusTitle",
              "widget": "choicesjs",
              "dataSrc": "url",
              "data": {
                "url": "ActionStatusTypes",
                "headers": []
              },
              "selectThreshold": 0.3,
              "validate": {
                "unique": false,
                "multiple": false
              },
              "template": "{{ item.alternateName }}",
              "key": "actionStatus",
              "valueProperty": "alternateName",
              "selectValues": "value",
              "type": "select",
              "input": true,
              "hideOnChildrenHidden": false,
              "disableLimit": false,
              "lazyLoad": false
            }
          ],
          "width": 3,
          "offset": 0,
          "push": 0,
          "pull": 0
        },

        {
          "components": [
            {
              "label": "Requests.DocumentTemplate",
              "widget": "choicesjs",
              "dataSrc": "url",
              "data": {
                "url": "DocumentConfigurations?$top=-1",
                "headers": []
              },
              "selectThreshold": 0.3,
              "validate": {
                "unique": false,
                "multiple": false
              },
              "template": "{{ item.name }}",
              "key": "object",
              "valueProperty": "name",
              "selectValues": "value",
              "type": "select",
              "input": true,
              "hideOnChildrenHidden": false,
              "disableLimit": false,
              "lazyLoad": true
            }
          ],
          "width": 3,
          "offset": 0,
          "push": 0,
          "pull": 0
        },
        {
          "components": [
            {
              "label": "Requests.RelatedFile",
              "widget": "choicesjs",
              "data": {
                "values": [
                  {
                    "label": "No",
                    "value": -1
                  },
                  {
                    "label": "Yes",
                    "value": 1
                  }
                ]
              },
              "selectThreshold": 0.3,
              "validate": {
                "unique": false,
                "multiple": false
              },
              "key": "result",
              "valueProperty": "value",
              "selectValues": "value",
              "type": "select",
              "input": true,
              "searchEnabled": false,
              "hideOnChildrenHidden": false,
              "disableLimit": false,
              "lazyLoad": false
            }
          ],
          "width": 3,
          "offset": 0,
          "push": 0,
          "pull": 0
        },
        {
          "components": [
            {
              "label": "Requests.DigitalSignature",
              "widget": "choicesjs",
              "data": {
                "values": [
                  {
                    "label": "Yes",
                    "value": "1"
                  },
                  {
                    "label": "No",
                    "value": "0"
                  }
                ]
              },
              "dataType": "string",
              "validate": {
                "unique": false,
                "multiple": false
              },
              "key": "signed",
              "valueProperty": "value",
              "selectValues": "label",
              "type": "select",
              "input": true,
              "hideOnChildrenHidden": false,
              "disableLimit": false,
              "lazyLoad": false,
              "searchEnabled": false
            }
          ],
          "width": 3,
          "offset": 0,
          "push": 0,
          "pull": 0
        },
        {
          "components": [
            {
              "label": "Requests.Published",
              "widget": "choicesjs",
              "data": {
                "values": [
                  {
                    "label": "Yes",
                    "value": "1"
                  },
                  {
                    "label": "No",
                    "value": "0"
                  }
                ]
              },
              "dataType": "string",
              "validate": {
                "unique": false,
                "multiple": false
              },
              "key": "published",
              "valueProperty": "value",
              "selectValues": "label",
              "type": "select",
              "input": true,
              "hideOnChildrenHidden": false,
              "disableLimit": false,
              "lazyLoad": false,
              "searchEnabled": false
            }
          ],
          "width": 3,
          "offset": 0,
          "push": 0,
          "pull": 0
        },
        {
          "components": [
            {
              "label": "Requests.DepartmentName",
              "labelPosition": "top",
              "widget": "choicesjs",
              "key": "department",
              "dataSrc": "url",
              "data": {
                "url": "Users/me/departments/?$select=id,name&$top=-1&$orderby=name",
                "headers": []
              },
              "template": "<span class='d-block pr-5 text-truncate'>{{ item.name }}</span>",
              "selectValues": "value",
              "valueProperty": "name",
              "type": "select",
              "input": true,
              "disabled": false,
              "lazyLoad": false,
              "searchEnabled": true,
              "searchFields": [
                "value.id",
                "value.name"
              ]
            }
          ],
          "width": 3,
          "offset": 0,
          "push": 0,
          "pull": 0
        },
        {
          "components": [
            {
            "label": "Requests.RequestedAfter",
              "tableView": false,
              "enableTime": false,
              "enableMinDateInput": false,
              "datePicker": {
                  "disableWeekends": false,
                  "disableWeekdays": false
              },
              "enableMaxDateInput": false,
              "key": "minDate",
              "type": "datetime",
              "input": true,
              "widget": {
                  "type": "calendar",
                  "displayInTimezone": "viewer",
                  "locale": "en",
                  "useLocaleSettings": false,
                  "allowInput": true,
                  "mode": "single",
                  "enableTime": true,
                  "noCalendar": false,
                  "format": "yyyy-MM-dd",
                  "hourIncrement": 1,
                  "minuteIncrement": 1,
                  "time_24hr": true,
                  "disableWeekends": false,
                  "disableWeekdays": false
              }
            }
          ],
          "width": 3,
          "offset": 0,
          "push": 0,
          "pull": 0
        },
        {
          "components": [
            {
              "label": "Requests.RequestedBefore",
              "tableView": false,
              "enableMinDateInput": false,
              "enableTime": false,
              "datePicker": {
                  "disableWeekends": false,
                  "disableWeekdays": false
              },
              "enableMaxDateInput": false,
              "key": "maxDate",
              "type": "datetime",
              "input": true,
              "widget": {
                  "type": "calendar",
                  "displayInTimezone": "viewer",
                  "useLocaleSettings": true,
                  "allowInput": true,
                  "mode": "single",
                  "enableTime": true,
                  "noCalendar": false,
                  "time_24hr": false,
                  "disableWeekends": false,
                  "disableWeekdays": false
              }
            }
          ],
          "width": 3,
          "offset": 0,
          "push": 0,
          "pull": 0
        }
      ],
      "tableView": false,
      "key": "columns1",
      "type": "columns",
      "input": false,
      "path": "columns1"
    }
  ]
}
