{
  "model": "StudentInformations",
  "components": [
    {
      "label": "Columns",
      "columns": [
        {
          "components": [
            {
              "label": "Students.studentIdentifier",
              "spellcheck": true,
              "tableView": true,
              "validate": {
                "unique": false,
                "multiple": false
              },
              "key": "studentIdentifier",
              "type": "textfield",
              "input": true,
              "hideOnChildrenHidden": false
            }
          ],
          "width": 3,
          "offset": 0,
          "push": 0,
          "pull": 0
        },
        {
          "components": [
            {
              "label": "Students.fullName",
              "spellcheck": true,
              "tableView": true,
              "validate": {
                "unique": false,
                "multiple": false
              },
              "key": "studentName",
              "type": "textfield",
              "input": true,
              "hideOnChildrenHidden": false
            }
          ],
          "width": 3,
          "offset": 0,
          "push": 0,
          "pull": 0
        },
        {
          "components": [
            {
              "label": "Students.InfoType",
              "widget": "choicesjs",
              "labelPosition": "top",
              "dataSrc": "url",
              "data": {
                "url": "StudentInfoTypes/?$top={{limit}}&$select=id,name&$orderby=name",
                "headers": []
              },
              "selectThreshold": 0.3,
              "limit": 50,
              "template": "{{ item.name }}",
              "key": "infoType",
              "valueProperty": "id",
              "selectValues": "value",
              "type": "select",
              "input": true,
              "searchEnabled": true
            }
          ],
          "width": 3,
          "offset": 0,
          "push": 0,
          "pull": 0
        },
        {
          "components": [
            {
              "label": "Published",
              "widget": "choicesjs",
              "data": {
                "values": [
                  {
                    "label": "No",
                    "value": "0"
                  },
                  {
                    "label": "Yes",
                    "value": "1"
                  }
                ]
              },
              "selectThreshold": 0.3,
              "validate": {
                "unique": false,
                "multiple": false
              },
              "key": "published",
              "valueProperty": "value",
              "selectValues": "value",
              "type": "select",
              "input": true,
              "searchEnabled": false,
              "hideOnChildrenHidden": false,
              "disableLimit": false,
              "lazyLoad": false
            }
          ],
          "width": 3,
          "offset": 0,
          "push": 0,
          "pull": 0
        },
        {
          "components": [
            {
              "label": "infoDate.DateAfter",
              "labelPosition": "top",
              "format": "dd/MM/yyyy",
              "enableTime": false,
              "widget": {
                "type": "calendar",
                "format": "dd/MM/yyyy"
              },
              "key": "setAfter",
              "type": "datetime",
              "input": true,
              "hideOnChildrenHidden": false
            }
          ],
          "width": 3,
          "offset": 0,
          "push": 0,
          "pull": 0
        },
        {
          "components": [
            {
              "label": "infoDate.DateBefore",
              "labelPosition": "top",
              "format": "dd/MM/yyyy",
              "enableTime": false,
              "widget": {
                "type": "calendar",
                "format": "dd/MM/yyyy"
              },
              "key": "setBefore",
              "type": "datetime",
              "input": true,
              "hideOnChildrenHidden": false
            }
          ],
          "width": 3,
          "offset": 0,
          "push": 0,
          "pull": 0
        },
        {
          "components": [
            {
              "label": "Status",
              "labelPosition": "top",
              "widget": "choicesjs",
              "data": {
                "values": [
                  {
                    "label": "status.InProgress",
                    "value": "1"
                  },
                  {
                    "label": "status.Completed",
                    "value": "2"
                  }
                ]
              },
              "selectThreshold": 0.3,
              "key": "status",
              "valueProperty": "value",
              "selectValues": "value",
              "type": "select",
              "input": true,
              "searchEnabled": false,
              "hideOnChildrenHidden": false
            }
          ],
          "width": 3,
          "offset": 0,
          "push": 0,
          "pull": 0
        },
        {
          "components": [
            {
              "label": "StudentStatus",
              "widget": "choicesjs",
              "dataSrc": "url",
              "data": {
                "url": "StudentStatuses?$orderby=name",
                "headers": []
              },
              "selectThreshold": 0.3,
              "validate": {
                "unique": false,
                "multiple": false
              },
              "template": "{{ item.name }}",
              "key": "studentStatus",
              "valueProperty": "alternateName",
              "selectValues": "value",
              "type": "select",
              "input": true,
              "hideOnChildrenHidden": false,
              "disableLimit": false,
              "lazyLoad": false
            }
          ],
          "width": 3,
          "offset": 0,
          "push": 0,
          "pull": 0
        }
      ],
      "tableView": false,
      "key": "columns1",
      "type": "columns",
      "input": false,
      "path": "columns1"
    }
  ]
}
