{
  "id": "graduated-students-list",
  "title": "Students.Graduated",
  "model": "Students",
  "searchExpression":"indexof(studentIdentifier, '${text}') ge 0 or indexof(person/familyName, '${text}') ge 0 or indexof(person/givenName, '${text}') ge 0 or indexof(user/name, '${text}') ge 0 or indexof(studyProgram/name, '${text}') ge 0 or indexof(studentStatus/name, '${text}') ge 0 or indexof(uniqueIdentifier, '${text}') ge 0",
  "selectable": true,
  "multipleSelect": true,
  "columns": [
    {
      "name":"id",
      "placeholder": "Tables.ActionLinkColumn",
      "property": "id",
      "formatter": "ActionLinkFormatter",
      "actions" : [
        {
          "title": "Students.Preview",
          "href": "#/students/${id}/dashboard"
        },
        {
          "title": "Students.PreviewStudyProgram",
          "href": "#/study-programs/${studyProgramId}/preview/general"
        },
        {
          "title": "Students.PreviewStudentCourses",
          "href": "#/students/${id}/dashboard/courses",
          "role": "action"
        },
        {
          "title": "Students.Edit",
          "href": "#/students/${id}/edit",
          "access":[
            {
              "studentStatuses": [
                {"alternateName" : "active"}
              ]
            }
          ]
        },
        {
          "title": "Reports.Print",
          "href": "#/students/${id}/dashboard/overview/(modal:print)",
          "role": "action"
        },
        {
          "title": "DataAvailabilityAttributes.Validation.Search",
          "formatOptions": {
            "commands": ["/departments/configuration/dataAvailability/validate"],
            "navigationExtras": {
              "queryParams": {
                "student": "${id}"
              }
            }
          }
        },
        {
          "title": "Students.AssignUserAction.Title",
          "href": "#/students/${id}/dashboard/overview/(modal:assign-user)",
          "role": "action"
        }
      ]
    },
    {
      "name":"studyProgram",
      "property": "studyProgramId",
      "title": "Students.studyProgramId",
      "hidden": true
    },
    {
      "name":"studyProgramSpecialty",
      "property": "studyProgramSpecialty",
      "title": "Students.SpecialtyId",
      "hidden": true
    },
    {
      "name":"studentIdentifier",
      "property": "studentIdentifier",
      "title":"Students.studentIdentifier"
    },
    {
      "name": "person/familyName",
      "property": "familyName",
      "title": "Students.FamilyName",
      "hidden": true
    },
    {
      "name": "person/givenName",
      "property": "givenName",
      "title": "Students.GivenName",
      "hidden": true
    },
    {
      "name": "person/familyName",
      "property": "fullName",
      "title": "Students.fullName",
      "formatter": "TemplateFormatter",
      "formatString": "${familyName} ${givenName}"
    },
    {
      "name":"department/name",
      "property": "departmentName",
      "title":"Students.Department",
      "hidden": true
    },
    {
      "name":"studyProgram/abbreviation",
      "property": "studyProgram",
      "title":"Students.studyProgram"
    },
    {
      "name":"studyProgramSpecialty/abbreviation",
      "property": "studyProgramSpecialtyAbbreviation",
      "title":"Students.Specialty"
    },
    {
      "name":"semester",
      "property": "semester",
      "title":"Students.semester"
    },
    {
      "name": "graduationNumber",
      "property": "graduationNumber",
      "title":"Students.GraduationNumber"
    },
    {
      "name":"graduationDate",
      "property": "graduationDate",
      "title":"Students.GraduationDate",
      "formatter": "DateTimeFormatter",
      "formatString": "shortDate"
    },
    {
      "name":"graduationYear/alternateName",
      "property": "graduationYear",
      "title":"Students.GraduationYear"
    },
    {
      "name":"graduationPeriod/alternateName",
      "property": "graduationPeriod",
      "title":"Students.GraduationPeriod",
      "formatter": "TranslationFormatter",
      "formatString": "Periods.${value}"
    },
    {
      "name":"inscriptionYear/alternateName",
      "property": "inscriptionYear",
      "title":"Students.inscriptionYear"
    },
    {
      "name":"inscriptionPeriod/alternateName",
      "property": "inscriptionPeriod",
      "title":"Students.inscriptionPeriod",
      "formatter": "TranslationFormatter",
      "formatString": "Periods.${value}"
    },
    {
      "name":"graduationGradeAdjusted",
      "property": "graduationGradeAdjusted",
      "title":"Students.GraduationGrade",
      "formatters": [
        {
          "formatter": "TemplateFormatter",
          "formatString": "${graduationGradeAdjusted != null ? graduationGradeAdjusted : '-'}"
        },
        {
          "formatter": "NgClassFormatter",
          "formatOptions": {
            "ngClass": {
              "text-success font-lg": "true"
            }
          }
        }
      ]
    },
    {
      "name":"studentStatus/alternateName",
      "property": "studentStatus",
      "title":"Students.studentStatus",
      "hidden": true
    },
    {
      "name": "user",
      "property": "user",
      "title": "Students.User",
      "hidden": true
    },
    {
      "name": "graduationGradeScale/id",
      "property": "graduationGradeScale",
      "title": "Students.GradeScaleId",
      "hidden": true
    },
    {
      "name": "graduationGradeScale/scaleType",
      "property": "graduationGradeScaleType",
      "title": "Students.ScaleType",
      "hidden": true
    },
    {
      "name": "studyProgram/decimalDigits",
      "property": "studyProgramDecimalDigits",
      "title": "Students.DecimalPoints",
      "hidden": true
    },
    {
      "name": "graduationGradeWrittenInWords",
      "property": "graduationGradeWrittenInWords",
      "title": "Students.GraduationGradeWrittenInWords",
      "hidden": true
    },
    {
      "name": "graduationGrade",
      "property": "graduationGrade",
      "title": "Students.GraduationDate",
      "hidden": true
    },
    {
      "name": "studentInstituteIdentifier",
      "property": "studentInstituteIdentifier",
      "title": "Students.studentInstituteIdentifier",
      "hidden": true,
      "optional": true
    },
    {
      "name": "schoolGraduated",
      "property": "schoolGraduated",
      "title": "Students.SchoolGraduated",
      "hidden": true,
      "optional": true
    },
    {
      "name": "schoolGraduatedYear",
      "property": "schoolGraduatedYear",
      "title": "Students.SchoolGraduatedYear",
      "hidden": true,
      "optional": true
    },
    {
      "name": "inscriptionNumber",
      "property": "inscriptionNumber",
      "title": "Students.InscriptionNumber",
      "hidden": true,
      "optional": true
    },
    {
      "name": "schoolGraduationNumber",
      "property": "schoolGraduationNumber",
      "title": "Students.SchoolGraduationNumber",
      "hidden": true,
      "optional": true
    },
    {
      "name": "inscriptionIndex",
      "property": "inscriptionIndex",
      "title": "Students.InscriptionIndex",
      "hidden": true,
      "optional": true
    },
    {
      "name": "schoolGraduationGrade",
      "property": "schoolGraduationGrade",
      "title": "Students.SchoolGraduationGrade",
      "hidden": true,
      "optional": true
    },
    {
      "name": "inscriptionDate",
      "property": "inscriptionDate",
      "title": "Students.InscriptionDate",
      "formatter": "DateTimeFormatter",
      "formatString": "shortDate",
      "hidden": true,
      "optional": true
    },
    {
      "name": "inscriptionDepartment",
      "property": "inscriptionDepartment",
      "title": "Students.InscriptionDepartment",
      "hidden": true,
      "optional": true
    },
    {
      "name": "inscriptionComments",
      "property": "inscriptionComments",
      "title": "Students.InscriptionComments",
      "hidden": true,
      "optional": true
    },
    {
      "name": "inscriptionDecision",
      "property": "inscriptionDecision",
      "title": "Students.InscriptionDecision",
      "hidden": true,
      "optional": true
    },
    {
      "name": "inscriptionPoints",
      "property": "inscriptionPoints",
      "title": "Students.InscriptionPoints",
      "hidden": true,
      "optional": true
    },
    {
      "name": "declaredDate",
      "property": "declaredDate",
      "title": "Students.DeclaredDate",
      "formatter": "DateTimeFormatter",
      "formatString": "shortDate",
      "hidden": true,
      "optional": true
    },
    {
      "name": "graduationTitle",
      "property": "graduationTitle",
      "title": "Students.GraduationTitle",
      "hidden": true,
      "optional": true
    },
    {
      "name": "lastObligationDate",
      "property": "lastObligationDate",
      "title": "Students.LastObligationDate",
      "formatter": "DateTimeFormatter",
      "formatString": "shortDate",
      "hidden": true,
      "optional": true
    },
    {
      "name": "graduationRankByInscriptionYear",
      "property": "graduationRankByInscriptionYear",
      "title": "Students.GraduationRankByInscriptionYear",
      "hidden": true,
      "optional": true
    },
    {
      "name": "graduationRankByGraduationYear",
      "property": "graduationRankByGraduationYear",
      "title": "Students.GraduationRankByGraduationYear",
      "hidden": true,
      "optional": true
    },
    {
      "name": "comments",
      "property": "comments",
      "title": "Students.Comments",
      "hidden": true,
      "optional": true
    },
    {
      "name": "uniqueIdentifier",
      "property": "uniqueIdentifier",
      "title": "Students.uniqueIdentifier",
      "hidden": true,
      "optional": true
    },
    {
      "name": "rate",
      "property": "rate",
      "title": "Students.Rate",
      "hidden": true,
      "optional": true
    },
    {
      "name": "person/fatherName",
      "property": "fatherName",
      "title": "Students.FatherName",
      "hidden": true,
      "optional": true
    },
    {
      "name": "person/motherName",
      "property": "motherName",
      "title": "Students.MotherName",
      "hidden": true,
      "optional": true
    },
    {
      "name": "person/identityCard",
      "property": "identityCard",
      "title": "Students.IdentityCard",
      "hidden": true,
      "optional": true
    },
    {
      "name": "person/email",
      "property": "email",
      "title": "Students.Email",
      "hidden": true,
      "optional": true
    },
    {
      "name": "person/homeAddress",
      "property": "homeAddress",
      "title": "Students.HomeAddress",
      "hidden": true,
      "optional": true
    },
    {
      "name": "person/homeCity",
      "property": "homeCity",
      "title": "Students.HomeCity",
      "hidden": true,
      "optional": true
    },
    {
      "name": "person/homeCountry",
      "property": "homeCountry",
      "title": "Students.HomeCountry",
      "hidden": true,
      "optional": true
    },
    {
      "name": "person/homePhone",
      "property": "homePhone",
      "title": "Students.HomePhone",
      "hidden": true,
      "optional": true
    },
    {
      "name": "person/temporaryAddress",
      "property": "temporaryAddress",
      "title": "Students.TemporaryAddress",
      "hidden": true,
      "optional": true
    },
    {
      "name": "person/temporaryCity",
      "property": "temporaryCity",
      "title": "Students.TemporaryCity",
      "hidden": true,
      "optional": true
    },
    {
      "name": "person/temporaryCountry",
      "property": "temporaryCountry",
      "title": "Students.TemporaryCountry",
      "hidden": true,
      "optional": true
    },
    {
      "name": "person/temporaryPhone",
      "property": "temporaryPhone",
      "title": "Students.TemporaryPhone",
      "hidden": true,
      "optional": true
    },
    {
      "name": "person/SSN",
      "property": "SSN",
      "title": "Students.SSN",
      "hidden": true,
      "optional": true
    },
    {
      "name": "person/insuranceNumber",
      "property": "insuranceNumber",
      "title": "Students.InsuranceNumber",
      "hidden": true,
      "optional": true
    },
    {
      "name": "person/mobilePhone",
      "property": "mobilePhone",
      "title": "Students.MobilePhone",
      "hidden": true,
      "optional": true
    },
    {
      "name": "person/gender/alternateName",
      "property": "gender",
      "title": "Students.Gender",
      "formatter": "TranslationFormatter",
      "formatString": "Genders.${value}",
      "hidden": true,
      "optional": true
    },
    {
      "name": "person/vatNumber",
      "property": "vatNumber",
      "title": "Students.VatNumber",
      "hidden": true,
      "optional": true
    },
    {
      "name": "person/birthDate",
      "property": "birthDate",
      "title": "Students.BirthDate",
      "formatter": "DateTimeFormatter",
      "formatString": "shortDate",
      "hidden": true,
      "optional": true
    },
    {
      "name": "person/birthPlace",
      "property": "birthPlace",
      "title": "Students.BirthPlace",
      "hidden": true,
      "optional": true
    },
    {
      "name": "militaryStatus/name",
      "property": "militaryStatus",
      "title": "Students.MilitaryStatus",
      "hidden": true,
      "optional": true
    }
  ],
  "criteria": [
    {
      "name": "studentIdentifier",
      "filter": "(studentIdentifier eq '${value}')",
      "type": "text"
    },
    {
      "name": "studentName",
      "filter": "(indexof(person/familyName, '${value}') ge 0 or indexof(person/givenName, '${value}') ge 0)",
      "type": "text"
    },
    {
      "name": "username",
      "filter": "(indexof(user/name, '${value}') ge 0)",
      "type": "text"
    },
    {
      "name": "studyProgram",
      "filter": "(studyProgram eq ${value})",
      "type": "text"
    },
    {
    "name": "studyProgramSpecialty",
    "filter": "(studyProgramSpecialty eq '${value.id}')",
    "type": "text"
    },
    {
      "name": "graduationTitle",
      "filter": "(indexof(graduationTitle, '${value}') ge 0)",
      "type": "text"
    },
    {
      "name": "graduationYear",
      "filter": "(graduationYear/id eq '${value}')",
      "type": "text"
    },
    {
      "name": "graduationPeriod",
      "filter": "(graduationPeriod/id eq '${value}')",
      "type": "text"
    },
    {
      "name": "inscriptionYear",
      "filter": "(inscriptionYear/id eq '${value}')",
      "type": "text"
    },
    {
      "name": "inscriptionPeriod",
      "filter": "(inscriptionPeriod/id eq '${value}')",
      "type": "text"
    },
    {
      "name": "semester",
      "filter": "(semester eq '${value}')",
      "type": "text"
    },
    {
      "name": "graduationNumber",
      "filter": "(graduationNumber eq '${value}')",
      "type": "text"
    },
    {
      "name": "minDate",
      "filter": "(graduationDate ge '${new Date(value).toISOString()}')"
    },
    {
      "name": "maxDate",
      "filter": "(graduationDate le '${new Date(value).toISOString()}')"
    },
    {
      "name": "hasUser",
      "filter": "${value >=1 ? '(user ne null)': '(user eq null)'}",
      "type": "text"
    }
  ],
  "defaults":{
    "filter": "(department eq '${currentDepartment}' and studentStatus/alternateName eq 'graduated')"
  },
  "paths" : [
    {
      "name": "Students.All",
      "show": true,
      "alternateName": "list",
      "filter": {
      }
    },
    {
      "name": "Students.Active",
      "alternateName": "active",
      "show": true,
      "filter": {
        "status": "active"
      }
    },
    {
      "name": "Students.FirstYear",
      "alternateName": "first-year",
      "filter": {
        "firstYearStudents": true
      }
    },
    {
      "name": "Students.Candidates",
      "alternateName": "candidates",
      "filter": {
        "status": "candidate"
      }
    },
    {
      "name": "Students.Declared",
      "alternateName": "declared",
      "filter": {
        "status": "declared"
      }
    },
    {
      "name": "Students.Graduated",
      "alternateName": "graduated",
      "filter": {
        "status": "graduated"
      }
    },
    {
      "name": "Students.Suspended",
      "alternateName": "suspended",
      "filter": {
        "status": "suspended"
      }
    },
    {
      "name": "Students.Removed",
      "alternateName": "removed",
      "filter": {
        "status": "erased"
      }
    }
  ]
}
